2022-05-20T11:39:55.822670+00:00 app[web.1]: 2022-05-20 11:39:55.822  INFO 5 --- [ost-startStop-1] com.zaxxer.hikari.HikariDataSource       : HikariPool-1 - Start completed.
2022-05-20T11:39:55.835032+00:00 app[web.1]: 2022-05-20 11:39:55.834  INFO 5 --- [ost-startStop-1] o.s.b.a.h2.H2ConsoleAutoConfiguration    : H2 console available at '/h2-console'. Database available at 'jdbc:h2:mem:jpadb'
2022-05-20T11:39:57.666218+00:00 app[web.1]: 2022-05-20 11:39:57.665  INFO 5 --- [ost-startStop-1] o.hibernate.jpa.internal.util.LogHelper  : HHH000204: Processing PersistenceUnitInfo [name: default]
2022-05-20T11:39:58.650659+00:00 app[web.1]: 2022-05-20 11:39:58.650  INFO 5 --- [ost-startStop-1] org.hibernate.Version                    : HHH000412: Hibernate ORM core version 5.4.12.Final
2022-05-20T11:39:59.100992+00:00 app[web.1]: 2022-05-20 11:39:59.100  INFO 5 --- [ost-startStop-1] o.hibernate.annotations.common.Version   : HCANN000001: Hibernate Commons Annotations {5.1.0.Final}
2022-05-20T11:40:00.038440+00:00 app[web.1]: 2022-05-20 11:40:00.038  INFO 5 --- [ost-startStop-1] org.hibernate.dialect.Dialect            : HHH000400: Using dialect: org.hibernate.dialect.H2Dialect
2022-05-20T11:40:00.505279+00:00 heroku[web.1]: Process running mem=702M(137.3%)
2022-05-20T11:40:00.506978+00:00 heroku[web.1]: Error R14 (Memory quota exceeded)
2022-05-20T11:40:03.283772+00:00 app[web.1]: 2022-05-20 11:40:03.283  INFO 5 --- [ost-startStop-1] o.h.e.t.j.p.i.JtaPlatformInitiator       : HHH000490: Using JtaPlatform implementation: [org.hibernate.engine.transaction.jta.platform.internal.NoJtaPlatform]
2022-05-20T11:40:03.322700+00:00 app[web.1]: 2022-05-20 11:40:03.322  INFO 5 --- [ost-startStop-1] j.LocalContainerEntityManagerFactoryBean : Initialized JPA EntityManagerFactory for persistence unit 'default'
2022-05-20T11:40:14.611967+00:00 app[web.1]: 2022-05-20 11:40:14.611  WARN 5 --- [ost-startStop-1] JpaBaseConfiguration$JpaWebConfiguration : spring.jpa.open-in-view is enabled by default. Therefore, database queries may be performed during view rendering. Explicitly configure spring.jpa.open-in-view to disable this warning
2022-05-20T11:40:16.573891+00:00 app[web.1]: 2022-05-20 11:40:16.573  INFO 5 --- [ost-startStop-1] o.s.s.concurrent.ThreadPoolTaskExecutor  : Initializing ExecutorService 'applicationTaskExecutor'
2022-05-20T11:40:17.529706+00:00 app[web.1]: 2022-05-20 11:40:17.529  INFO 5 --- [ost-startStop-1] o.s.b.a.w.s.WelcomePageHandlerMapping    : Adding welcome page template: index
2022-05-20T11:40:22.402628+00:00 heroku[web.1]: Process running mem=893M(174.5%)
2022-05-20T11:40:22.406790+00:00 heroku[web.1]: Error R14 (Memory quota exceeded)
2022-05-20T11:40:25.526806+00:00 app[web.1]: 2022-05-20 11:40:25.525  INFO 5 --- [ost-startStop-1] c.g.payroll.ServletInitializer           : Started ServletInitializer in 41.989 seconds (JVM running for 54.075)
2022-05-20T11:40:27.718701+00:00 app[web.1]: 20-May-2022 11:40:27.716 INFO [localhost-startStop-1] org.apache.catalina.startup.HostConfig.deployWAR Deployment of web application archive [/usr/local/tomcat/webapps/basic-0.0.1-SNAPSHOT.war] has finished in [55,044] ms
2022-05-20T11:40:27.744428+00:00 app[web.1]: 20-May-2022 11:40:27.744 INFO [main] org.apache.coyote.AbstractProtocol.start Starting ProtocolHandler ["http-nio-8080"]
2022-05-20T11:40:27.787734+00:00 app[web.1]: 20-May-2022 11:40:27.787 INFO [main] org.apache.catalina.startup.Catalina.start Server startup in 55167 ms
2022-05-20T11:40:31.148622+00:00 heroku[web.1]: Error R10 (Boot timeout) -> Web process failed to bind to $PORT within 60 seconds of launch
2022-05-20T11:40:31.194513+00:00 heroku[web.1]: Stopping process with SIGKILL
2022-05-20T11:40:31.404821+00:00 heroku[web.1]: Process exited with status 137
2022-05-20T11:40:31.454757+00:00 heroku[web.1]: State changed from starting to crashed
2022-05-20T11:40:31.458524+00:00 heroku[web.1]: State changed from crashed to starting
2022-05-20T11:40:51.453326+00:00 heroku[web.1]: Starting process with command `catalina.sh run`
2022-05-20T11:40:53.500860+00:00 app[web.1]: 20-May-2022 11:40:53.499 INFO [main] org.apache.catalina.startup.VersionLoggerListener.log Server version name:   Apache Tomcat/8.5.78
2022-05-20T11:40:53.500985+00:00 app[web.1]: 20-May-2022 11:40:53.500 INFO [main] org.apache.catalina.startup.VersionLoggerListener.log Server built:          Mar 31 2022 16:05:28 UTC
2022-05-20T11:40:53.501097+00:00 app[web.1]: 20-May-2022 11:40:53.501 INFO [main] org.apache.catalina.startup.VersionLoggerListener.log Server version number: 8.5.78.0
2022-05-20T11:40:53.501206+00:00 app[web.1]: 20-May-2022 11:40:53.501 INFO [main] org.apache.catalina.startup.VersionLoggerListener.log OS Name:               Linux
2022-05-20T11:40:53.501305+00:00 app[web.1]: 20-May-2022 11:40:53.501 INFO [main] org.apache.catalina.startup.VersionLoggerListener.log OS Version:            4.4.0-1103-aws
2022-05-20T11:40:53.501401+00:00 app[web.1]: 20-May-2022 11:40:53.501 INFO [main] org.apache.catalina.startup.VersionLoggerListener.log Architecture:          amd64
2022-05-20T11:40:53.501496+00:00 app[web.1]: 20-May-2022 11:40:53.501 INFO [main] org.apache.catalina.startup.VersionLoggerListener.log Java Home:             /opt/java/openjdk/jre
2022-05-20T11:40:53.501588+00:00 app[web.1]: 20-May-2022 11:40:53.501 INFO [main] org.apache.catalina.startup.VersionLoggerListener.log JVM Version:           1.8.0_332-b09
2022-05-20T11:40:53.501686+00:00 app[web.1]: 20-May-2022 11:40:53.501 INFO [main] org.apache.catalina.startup.VersionLoggerListener.log JVM Vendor:            Temurin
2022-05-20T11:40:53.501786+00:00 app[web.1]: 20-May-2022 11:40:53.501 INFO [main] org.apache.catalina.startup.VersionLoggerListener.log CATALINA_BASE:         /usr/local/tomcat
2022-05-20T11:40:53.501880+00:00 app[web.1]: 20-May-2022 11:40:53.501 INFO [main] org.apache.catalina.startup.VersionLoggerListener.log CATALINA_HOME:         /usr/local/tomcat
2022-05-20T11:40:53.502125+00:00 app[web.1]: 20-May-2022 11:40:53.502 INFO [main] org.apache.catalina.startup.VersionLoggerListener.log Command line argument: -Djava.util.logging.config.file=/usr/local/tomcat/conf/logging.properties
2022-05-20T11:40:53.502313+00:00 app[web.1]: 20-May-2022 11:40:53.502 INFO [main] org.apache.catalina.startup.VersionLoggerListener.log Command line argument: -Djava.util.logging.manager=org.apache.juli.ClassLoaderLogManager
2022-05-20T11:40:53.502409+00:00 app[web.1]: 20-May-2022 11:40:53.502 INFO [main] org.apache.catalina.startup.VersionLoggerListener.log Command line argument: -Djdk.tls.ephemeralDHKeySize=2048
2022-05-20T11:40:53.502546+00:00 app[web.1]: 20-May-2022 11:40:53.502 INFO [main] org.apache.catalina.startup.VersionLoggerListener.log Command line argument: -Djava.protocol.handler.pkgs=org.apache.catalina.webresources
2022-05-20T11:40:53.502637+00:00 app[web.1]: 20-May-2022 11:40:53.502 INFO [main] org.apache.catalina.startup.VersionLoggerListener.log Command line argument: -Dorg.apache.catalina.security.SecurityListener.UMASK=0027
2022-05-20T11:40:53.502735+00:00 app[web.1]: 20-May-2022 11:40:53.502 INFO [main] org.apache.catalina.startup.VersionLoggerListener.log Command line argument: -Dignore.endorsed.dirs=
2022-05-20T11:40:53.505659+00:00 app[web.1]: 20-May-2022 11:40:53.505 INFO [main] org.apache.catalina.startup.VersionLoggerListener.log Command line argument: -Dcatalina.base=/usr/local/tomcat
2022-05-20T11:40:53.505765+00:00 app[web.1]: 20-May-2022 11:40:53.505 INFO [main] org.apache.catalina.startup.VersionLoggerListener.log Command line argument: -Dcatalina.home=/usr/local/tomcat
2022-05-20T11:40:53.505860+00:00 app[web.1]: 20-May-2022 11:40:53.505 INFO [main] org.apache.catalina.startup.VersionLoggerListener.log Command line argument: -Djava.io.tmpdir=/usr/local/tomcat/temp
2022-05-20T11:40:53.505984+00:00 app[web.1]: 20-May-2022 11:40:53.505 INFO [main] org.apache.catalina.core.AprLifecycleListener.lifecycleEvent Loaded Apache Tomcat Native library [1.2.32] using APR version [1.6.5].
2022-05-20T11:40:53.506085+00:00 app[web.1]: 20-May-2022 11:40:53.506 INFO [main] org.apache.catalina.core.AprLifecycleListener.lifecycleEvent APR capabilities: IPv6 [true], sendfile [true], accept filters [false], random [true], UDS [{4}].
2022-05-20T11:40:53.506167+00:00 app[web.1]: 20-May-2022 11:40:53.506 INFO [main] org.apache.catalina.core.AprLifecycleListener.lifecycleEvent APR/OpenSSL configuration: useAprConnector [false], useOpenSSL [true]
2022-05-20T11:40:53.509297+00:00 app[web.1]: 20-May-2022 11:40:53.509 INFO [main] org.apache.catalina.core.AprLifecycleListener.initializeSSL OpenSSL successfully initialized [OpenSSL 1.1.1f  31 Mar 2020]
2022-05-20T11:40:53.599703+00:00 app[web.1]: 20-May-2022 11:40:53.599 INFO [main] org.apache.coyote.AbstractProtocol.init Initializing ProtocolHandler ["http-nio-8080"]
2022-05-20T11:40:54.197393+00:00 app[web.1]: 20-May-2022 11:40:54.197 INFO [main] org.apache.catalina.startup.Catalina.load Initialization processed in 1573 ms
2022-05-20T11:40:54.227376+00:00 app[web.1]: 20-May-2022 11:40:54.227 INFO [main] org.apache.catalina.core.StandardService.startInternal Starting service [Catalina]
2022-05-20T11:40:54.227802+00:00 app[web.1]: 20-May-2022 11:40:54.227 INFO [main] org.apache.catalina.core.StandardEngine.startInternal Starting Servlet engine: [Apache Tomcat/8.5.78]
2022-05-20T11:40:54.308455+00:00 app[web.1]: 20-May-2022 11:40:54.302 INFO [localhost-startStop-1] org.apache.catalina.startup.HostConfig.deployWAR Deploying web application archive [/usr/local/tomcat/webapps/basic-0.0.1-SNAPSHOT.war]
2022-05-20T11:41:06.219429+00:00 app[web.1]: 20-May-2022 11:41:06.219 INFO [localhost-startStop-1] org.apache.jasper.servlet.TldScanner.scanJars At least one JAR was scanned for TLDs yet contained no TLDs. Enable debug logging for this logger for a complete list of JARs that were scanned but no TLDs were found in them. Skipping unneeded JARs during scanning can improve startup time and JSP compilation time.
2022-05-20T11:41:10.459772+00:00 app[web.1]: 
2022-05-20T11:41:10.459794+00:00 app[web.1]:   .   ____          _            __ _ _
2022-05-20T11:41:10.459795+00:00 app[web.1]:  /\\ / ___'_ __ _ _(_)_ __  __ _ \ \ \ \
2022-05-20T11:41:10.459811+00:00 app[web.1]: ( ( )\___ | '_ | '_| | '_ \/ _` | \ \ \ \
2022-05-20T11:41:10.459813+00:00 app[web.1]:  \\/  ___)| |_)| | | | | || (_| |  ) ) ) )
2022-05-20T11:41:10.459827+00:00 app[web.1]:   '  |____| .__|_| |_|_| |_\__, | / / / /
2022-05-20T11:41:10.459852+00:00 app[web.1]:  =========|_|==============|___/=/_/_/_/
2022-05-20T11:41:10.461305+00:00 app[web.1]:  :: Spring Boot ::        (v2.2.5.RELEASE)
2022-05-20T11:41:10.461327+00:00 app[web.1]: 
2022-05-20T11:41:11.243995+00:00 app[web.1]: 2022-05-20 11:41:11.239  INFO 5 --- [ost-startStop-1] c.g.payroll.ServletInitializer           : Starting ServletInitializer on feb50113-4ad1-4af0-a5cc-5638a7d9af2c with PID 5 (/usr/local/tomcat/webapps/basic-0.0.1-SNAPSHOT/WEB-INF/classes started by u8766 in /tut-basic-gradle-docker-heroku)
2022-05-20T11:41:11.245805+00:00 app[web.1]: 2022-05-20 11:41:11.245  INFO 5 --- [ost-startStop-1] c.g.payroll.ServletInitializer           : No active profile set, falling back to default profiles: default
2022-05-20T11:41:15.009925+00:00 app[web.1]: 2022-05-20 11:41:15.006  INFO 5 --- [ost-startStop-1] .s.d.r.c.RepositoryConfigurationDelegate : Bootstrapping Spring Data JPA repositories in DEFAULT mode.
2022-05-20T11:41:15.259259+00:00 app[web.1]: 2022-05-20 11:41:15.259  INFO 5 --- [ost-startStop-1] .s.d.r.c.RepositoryConfigurationDelegate : Finished Spring Data repository scanning in 204ms. Found 1 JPA repository interfaces.
2022-05-20T11:41:17.413521+00:00 app[web.1]: 2022-05-20 11:41:17.413  INFO 5 --- [ost-startStop-1] o.s.web.context.ContextLoader            : Root WebApplicationContext: initialization completed in 5958 ms
2022-05-20T11:41:18.360408+00:00 app[web.1]: 2022-05-20 11:41:18.360  INFO 5 --- [ost-startStop-1] com.zaxxer.hikari.HikariDataSource       : HikariPool-1 - Starting...
2022-05-20T11:41:19.657061+00:00 app[web.1]: 2022-05-20 11:41:19.656  INFO 5 --- [ost-startStop-1] com.zaxxer.hikari.HikariDataSource       : HikariPool-1 - Start completed.
2022-05-20T11:41:20.196064+00:00 app[web.1]: 2022-05-20 11:41:20.195  INFO 5 --- [ost-startStop-1] o.s.b.a.h2.H2ConsoleAutoConfiguration    : H2 console available at '/h2-console'. Database available at 'jdbc:h2:mem:jpadb'
2022-05-20T11:41:21.463345+00:00 app[web.1]: 2022-05-20 11:41:21.463  INFO 5 --- [ost-startStop-1] o.hibernate.jpa.internal.util.LogHelper  : HHH000204: Processing PersistenceUnitInfo [name: default]
2022-05-20T11:41:22.405377+00:00 app[web.1]: 2022-05-20 11:41:22.405  INFO 5 --- [ost-startStop-1] org.hibernate.Version                    : HHH000412: Hibernate ORM core version 5.4.12.Final
2022-05-20T11:41:22.901667+00:00 app[web.1]: 2022-05-20 11:41:22.901  INFO 5 --- [ost-startStop-1] o.hibernate.annotations.common.Version   : HCANN000001: Hibernate Commons Annotations {5.1.0.Final}
2022-05-20T11:41:23.574926+00:00 app[web.1]: 2022-05-20 11:41:23.574  INFO 5 --- [ost-startStop-1] org.hibernate.dialect.Dialect            : HHH000400: Using dialect: org.hibernate.dialect.H2Dialect
2022-05-20T11:41:25.844084+00:00 app[web.1]: 2022-05-20 11:41:25.843  INFO 5 --- [ost-startStop-1] o.h.e.t.j.p.i.JtaPlatformInitiator       : HHH000490: Using JtaPlatform implementation: [org.hibernate.engine.transaction.jta.platform.internal.NoJtaPlatform]
2022-05-20T11:41:25.879679+00:00 app[web.1]: 2022-05-20 11:41:25.879  INFO 5 --- [ost-startStop-1] j.LocalContainerEntityManagerFactoryBean : Initialized JPA EntityManagerFactory for persistence unit 'default'
2022-05-20T11:41:27.661427+00:00 heroku[web.1]: Process running mem=715M(139.7%)
2022-05-20T11:41:27.663367+00:00 heroku[web.1]: Error R14 (Memory quota exceeded)
2022-05-20T11:41:38.788984+00:00 app[web.1]: 2022-05-20 11:41:38.786  WARN 5 --- [ost-startStop-1] JpaBaseConfiguration$JpaWebConfiguration : spring.jpa.open-in-view is enabled by default. Therefore, database queries may be performed during view rendering. Explicitly configure spring.jpa.open-in-view to disable this warning
2022-05-20T11:41:42.432006+00:00 app[web.1]: 2022-05-20 11:41:42.431  INFO 5 --- [ost-startStop-1] o.s.s.concurrent.ThreadPoolTaskExecutor  : Initializing ExecutorService 'applicationTaskExecutor'
2022-05-20T11:41:44.327595+00:00 app[web.1]: 2022-05-20 11:41:44.327  INFO 5 --- [ost-startStop-1] o.s.b.a.w.s.WelcomePageHandlerMapping    : Adding welcome page template: index
2022-05-20T11:41:49.847568+00:00 heroku[web.1]: Process running mem=809M(158.0%)
2022-05-20T11:41:49.849702+00:00 heroku[web.1]: Error R14 (Memory quota exceeded)
2022-05-20T11:41:50.530017+00:00 app[web.1]: 2022-05-20 11:41:50.522  INFO 5 --- [ost-startStop-1] c.g.payroll.ServletInitializer           : Started ServletInitializer in 43.292 seconds (JVM running for 58.093)
2022-05-20T11:41:51.451133+00:00 app[web.1]: 20-May-2022 11:41:51.445 INFO [localhost-startStop-1] org.apache.catalina.startup.HostConfig.deployWAR Deployment of web application archive [/usr/local/tomcat/webapps/basic-0.0.1-SNAPSHOT.war] has finished in [57,138] ms
2022-05-20T11:41:51.499406+00:00 app[web.1]: 20-May-2022 11:41:51.499 INFO [main] org.apache.coyote.AbstractProtocol.start Starting ProtocolHandler ["http-nio-8080"]
2022-05-20T11:41:51.551450+00:00 app[web.1]: 20-May-2022 11:41:51.551 INFO [main] org.apache.catalina.startup.Catalina.start Server startup in 57353 ms
2022-05-20T11:41:51.839020+00:00 heroku[web.1]: Error R10 (Boot timeout) -> Web process failed to bind to $PORT within 60 seconds of launch
2022-05-20T11:41:51.979602+00:00 heroku[web.1]: Stopping process with SIGKILL
2022-05-20T11:41:52.197822+00:00 heroku[web.1]: Process exited with status 137
2022-05-20T11:41:52.313093+00:00 heroku[web.1]: State changed from starting to crashed